{
  "type": "service_account",
  "project_id": "mercati-309d4",
  "private_key_id": "674607cb85ecf29a2c5d82f124267320717e4515",
  "private_key": "-----BEGIN PRIVATE KEY-----\nMIIEvgIBADANBgkqhkiG9w0BAQEFAASCBKgwggSkAgEAAoIBAQC2+YTg6BPyYGfo\nd+B6i9h2iNtqOaYW0URh+qLHQCctz9kx1ggQmBfbcrt72AqaUn5TkBZNHCiB48v6\n0PDOznHXHxIl10K0nOIO8Q5KovcAmqkpXqBlk05bVwPgMadTuo4gVVCQQnksnDw7\nfboHIaF1QLN3JdybL/beLAqsuR3Dn9t0N/Y0uJVasoioGFAZlPl7Lq+77Lkxn0GX\nlfeJLKwBFmSfHZn8TcErmk4eTLDHodpAuzbWCn6mdPwofojYQF0uWNq1a/rRQpG0\nKi7S6+7lArU+noGyWyS8sQTA2QmjjyAXDR8PhlUfqjTmtPMTuGh3t0BvKbcLQQRi\n9D2wn4K3AgMBAAECggEADcJyeU3v1Ls738xxUhCFelciVjj4QiEB3nMFngGMsLI/\nqAgWBSwa0dgtPHaWSDKfPf4eNIrt346s094LLdIdLMsxBy11M7XUfhZ8jPpM+Xun\n8EIlwl2zIm/xt6tO5PSozspQ9k2Ouom+hyQWQtuxk5VbqZXBot3sLPBCQT45Jxu+\nvIcJHe+POw8GxjoTyB3N1RGKNBg5rEmyNNaUVF5eTCBkGrtHk8lS6MUb2XgKwKmW\nzxO/gXi4fJ17wxmw8qyZV3JLImi9ulfFO28ENgHfGy7tHCtPsSHmc/0Zm7aNGMKV\nRhqPfdHZdafTzK0LPkilDYT/j5Urc/YVQH9pQGDnyQKBgQDmcxas/1Ju2E4CMjoS\nDBFLDEK5+bBeLkzyCKD0IkuHKnaxzf+GKHZUVTjurhr5lbYU+PVn1BbKTb/YTCVO\njGBm8vwjsUKn/7bgmUJmPYzpd9d5qqh8R4ubAAodcDPcGRFD8Ae8Xgb8XHsrCBh5\nirq/O1O86xlFKLKVG1xOD97LEwKBgQDLQvAzFOp2OrsBFpwMG1GKTcdyODJk7M90\nQWXPkF09S72FHdqweLOHq6noOuwL5bNaCEAOSC/BKMyHuEIXsxy4BGx+QZ5HNpYn\nnVewxjq5L7MR3I6+zTKQ2+2wtrU9F0K6Xr+ybP/grNC8TrulSj9nxvlemuYx3X1r\noXUuTSGaTQKBgH352CGGCZgSosJMlrYa5rEx6KAlwKYbhXCiCuqqfMNNEUmtpMu/\n/r+nPtIrVw+tKbZZSj4SEMtSqVcieRpxXpmopvEUC64u+dfZsBSX/Rn7q00VX7lg\nmw6GfQEOvyrIgUm0Q2ZTuFnobGRfrpFypxe25NXXZx8JWmZsaI872b0FAoGBAKjM\nQR+aug9PPKdtuE+RjEi3yO8A3lDUHIAmIz+ZWuUhdhULMuakhisgEyzJaeeDbUtS\nWKfDqOzXTetTyIdX9nyXJ+Y95gyrt0zUrNMf+/p4M1Sc/mpTjC+ihKThRmeiXobZ\nUocBYAmcWohXNhvRKhCru8GmD47Pqm1smxzFbydtAoGBAJhf+tcwTPd4eiELKYJu\n9sMcPH7+7XGThNEv629Im+NowIGsNT18Ilp1RpWgBy+9w24HlvvmQnt8/ah4CPnF\nMhprroLiPXN2CAz4g+9KSoOMUgXjAeIrAC5ccMyEOexjKNrZdGy7vkOipo2RUC09\nH8mUB5clPFEqKHuewFUzd0QW\n-----END PRIVATE KEY-----\n",
  "client_email": "firebase-adminsdk-solfc@mercati-309d4.iam.gserviceaccount.com",
  "client_id": "111082206340552705366",
  "auth_uri": "https://accounts.google.com/o/oauth2/auth",
  "token_uri": "https://oauth2.googleapis.com/token",
  "auth_provider_x509_cert_url": "https://www.googleapis.com/oauth2/v1/certs",
  "client_x509_cert_url": "https://www.googleapis.com/robot/v1/metadata/x509/firebase-adminsdk-solfc%40mercati-309d4.iam.gserviceaccount.com"
}