<svg xmlns="http://www.w3.org/2000/svg" width="26.823" height="28" viewBox="0 0 26.823 28">
  <path id="Trazado_13126" data-name="Trazado 13126" d="M380.894,138.647h0v24.947h0l-13.409-4.529h0l-13.409,4.529h0V137.3h0s-.012-1.69,0-1.707c.008,0,26.8.006,26.818,0C380.88,135.586,380.894,138.351,380.894,138.647Z" transform="translate(-354.071 -135.594)" fill="#ff5300"/>
</svg>
